Coursera Data Science Capstone: Exploratory Data Analysis
…
Unnesting tokens and removing the stopwords

data(stop_words)
tidySampleData <- sampleData %>% unnest_tokens(word, text) %>% anti_join(stop_words)

## Joining, by = "word"

#Removing whitespaces 
tidySampleData$word <- gsub("\\s+","",tidySampleData$word)
#Removing Numbers
tidySampleData<-tidySampleData[-grep("\\b\\d+\\b", tidySampleData$word),]

tidySampleData %>% count(word, sort = TRUE);

## # A tibble: 61,207 x 2
##    word       n
##    <chr>  <int>
##  1 time    3486
##  2 love    3091
##  3 day     2960
##  4 people  2253
##  5 rt      1780
##  6 life    1542
##  7 lol     1459
##  8 happy   1286
##  9 im      1220
## 10 night   1167
## # ... with 61,197 more rows
…
bigrams_filtered$word1 <- gsub("\\'+","",bigrams_filtered$word1)
bigrams_filtered$word2 <- gsub("\\'+","",bigrams_filtered$word2)

#Removing Numbers
bigrams_filtered<-bigrams_filtered[-grep("\\b\\d+\\b", bigrams_filtered$word1),]
bigrams_filtered<-bigrams_filtered[-grep("\\b\\d+\\b", bigrams_filtered$word2),]

bigrams_united <- bigrams_filtered %>% unite(bigram, word1, word2, sep = " ")
bigrams_united %>% count(bigram,sort=TRUE)

## # A tibble: 173,641 x 2
##    bigram             n
##    <chr>          <int>
##  1 happy birthday   171
##  2 mothers day      128
##  3 social media      99
##  4 ice cream         62
##  5 stay tuned        62
##  6 happy mothers     60
##  7 rt rt             59
##  8 los angeles       53
##  9 san diego         49
## 10 happy friday      48
## # ... with 173,631 more rows
…
bigrams_filtered$word1 <- gsub("\\'+","",bigrams_filtered$word1)
bigrams_filtered$word2 <- gsub("\\'+","",bigrams_filtered$word2)
bigrams_filtered$word3 <- gsub("\\'+","",bigrams_filtered$word3)

#Removing Numbers
bigrams_filtered<-bigrams_filtered[-grep("\\b\\d+\\b", bigrams_filtered$word1),]
bigrams_filtered<-bigrams_filtered[-grep("\\b\\d+\\b", bigrams_filtered$word2),]
bigrams_filtered<-bigrams_filtered[-grep("\\b\\d+\\b", bigrams_filtered$word3),]

bigrams_united <- bigrams_filtered %>% unite(bigram, word1, word2,word3, sep = " ")
bigrams_united %>% count(bigram,sort=TRUE)

## # A tibble: 76,501 x 2
##    bigram                      n
##    <chr>                   <int>
##  1 happy mothers day          60
##  2 cake cake cake             25
##  3 swag swag swag             25
##  4 cinco de mayo              20
##  5 custom paintball jersey    19
##  6 design custom paintball    19
##  7 love love love             16
##  8 ugly ugly ugly             16
##  9 happy valentines day       12
## 10 mikey mikey mikey          12
## # ... with 76,491 more rows
…
